Investigating the Corellation Between The Diet of Birds and Their Beak Measurement
…
---

background-image: url(https://images.unsplash.com/photo-1470167494176-c2e966a4eb3d?q=80&w=2342&auto=format&fit=crop&ixlib=rb-4.0.3&ixid=M3wxMjA3fDB8MHxwaG90by1wYWdlfHx8fGVufDB8fHx8fA%3D%3D)
background-position: top center

##Our Data
We chose the AVONET data set which outlines functional trait data for all birds including data on:
- Species
- Habitat
- Trophic (diet)
- Different Beak size data including: Beak width, Beak Depth and two measures of Beak length
...

```
## # A tibble: 11,009 × 7
##    Species_Name   Family Beak_Nares_Length Beak_Depth Beak_Width General_Trophic
##    <chr>          <chr>              <dbl>      <dbl>      <dbl> <chr>          
##  1 Accipiter alb… Accip…              17.8       14.7       10.6 Carnivore      
##  2 Accipiter bad… Accip…              12.1       11.6        8.8 Carnivore      
##  3 Accipiter bic… Accip…              13.7       12.7        8.6 Carnivore      
##  4 Accipiter bra… Accip…              14         11.9        8.9 Carnivore      
##  5 Accipiter bre… Accip…              12.1       11.1        8.7 Carnivore      
##  6 Accipiter but… Accip…              11.9       12          6.6 Carnivore      
##  7 Accipiter cas… Accip…              11.5       10.9        8.3 Carnivore      
##  8 Accipiter cir… Accip…              10.6        9.6        7.7 Carnivore      
##  9 Accipiter col… Accip…              11.2       11          8.6 Carnivore      
## 10 Accipiter coo… Accip…              13.9       13.2        8.6 Carnivore      
## # ℹ 10,999 more rows
## # ℹ 1 more variable: Niche_Trophic <chr>
```
…
